D:\UtsavWorkspace\Proj10_09_2018\DisplayHibernate\src\main\java\com\displayHibernate\model\Tag.java
D:\UtsavWorkspace\Proj10_09_2018\DisplayHibernate\src\main\java\com\displayHibernate\model\Category.java
D:\UtsavWorkspace\Proj10_09_2018\DisplayHibernate\src\main\java\com\displayHibernate\util\ConversionToJSON.java
D:\UtsavWorkspace\Proj10_09_2018\DisplayHibernate\src\main\java\com\displayHibernate\model\ImageInfo.java
D:\UtsavWorkspace\Proj10_09_2018\DisplayHibernate\src\main\java\com\displayHibernate\controller\ThemeItemController.java
D:\UtsavWorkspace\Proj10_09_2018\DisplayHibernate\src\main\java\com\displayHibernate\security\SecurityWebApplicationInitializer.java
D:\UtsavWorkspace\Proj10_09_2018\DisplayHibernate\src\main\java\com\displayHibernate\model\Description.java
D:\UtsavWorkspace\Proj10_09_2018\DisplayHibernate\src\main\java\com\displayHibernate\service\ImageService.java
D:\UtsavWorkspace\Proj10_09_2018\DisplayHibernate\src\main\java\com\displayHibernate\service\ImageServiceImpl.java
D:\UtsavWorkspace\Proj10_09_2018\DisplayHibernate\src\main\java\com\displayHibernate\dao\UserDaoImpl.java
D:\UtsavWorkspace\Proj10_09_2018\DisplayHibernate\src\main\java\com\displayHibernate\home\HomeController.java
D:\UtsavWorkspace\Proj10_09_2018\DisplayHibernate\src\main\java\com\displayHibernate\controller\OAuth2RestController.java
D:\UtsavWorkspace\Proj10_09_2018\DisplayHibernate\src\main\java\com\displayHibernate\dao\CategoryDaoImpl.java
D:\UtsavWorkspace\Proj10_09_2018\DisplayHibernate\src\main\java\com\displayHibernate\config\CorsAllowConfig.java
D:\UtsavWorkspace\Proj10_09_2018\DisplayHibernate\src\main\java\com\displayHibernate\model\Item.java
D:\UtsavWorkspace\Proj10_09_2018\DisplayHibernate\src\main\java\com\displayHibernate\security\MethodSecurityConfig.java
D:\UtsavWorkspace\Proj10_09_2018\DisplayHibernate\src\main\java\com\displayHibernate\service\UserService.java
D:\UtsavWorkspace\Proj10_09_2018\DisplayHibernate\src\main\java\com\displayHibernate\dao\ItemAndThemeDao.java
D:\UtsavWorkspace\Proj10_09_2018\DisplayHibernate\src\main\java\com\displayHibernate\model\DisplayInfo.java
D:\UtsavWorkspace\Proj10_09_2018\DisplayHibernate\src\main\java\com\displayHibernate\config\SecurityConfig.java
D:\UtsavWorkspace\Proj10_09_2018\DisplayHibernate\src\main\java\com\displayHibernate\dao\CatgoryDao.java
D:\UtsavWorkspace\Proj10_09_2018\DisplayHibernate\src\main\java\com\displayHibernate\model\AuthTokenInfo.java
D:\UtsavWorkspace\Proj10_09_2018\DisplayHibernate\src\main\java\com\displayHibernate\service\ItemWithThemeServiceImpl.java
D:\UtsavWorkspace\Proj10_09_2018\DisplayHibernate\src\main\java\com\displayHibernate\dao\ItemDaoImpl.java
D:\UtsavWorkspace\Proj10_09_2018\DisplayHibernate\src\main\java\com\displayHibernate\security\OAuth2SecurityConfiguration.java
D:\UtsavWorkspace\Proj10_09_2018\DisplayHibernate\src\main\java\com\displayHibernate\service\UserServiceImpl.java
D:\UtsavWorkspace\Proj10_09_2018\DisplayHibernate\src\main\java\com\displayHibernate\config\WebConfig.java
D:\UtsavWorkspace\Proj10_09_2018\DisplayHibernate\src\main\java\com\displayHibernate\dao\ItemAndThemeDaoImpl.java
D:\UtsavWorkspace\Proj10_09_2018\DisplayHibernate\src\main\java\com\displayHibernate\service\DisplayService.java
D:\UtsavWorkspace\Proj10_09_2018\DisplayHibernate\src\main\java\com\displayHibernate\model\ResponseData.java
D:\UtsavWorkspace\Proj10_09_2018\DisplayHibernate\src\main\java\com\displayHibernate\model\ItemInfo.java
D:\UtsavWorkspace\Proj10_09_2018\DisplayHibernate\src\main\java\com\displayHibernate\model\UserRole.java
D:\UtsavWorkspace\Proj10_09_2018\DisplayHibernate\src\main\java\com\displayHibernate\service\ItemWithThemeService.java
D:\UtsavWorkspace\Proj10_09_2018\DisplayHibernate\src\main\java\com\displayHibernate\dao\DisplayDao.java
D:\UtsavWorkspace\Proj10_09_2018\DisplayHibernate\src\main\java\com\displayHibernate\model\SubCategory.java
D:\UtsavWorkspace\Proj10_09_2018\DisplayHibernate\src\main\java\com\displayHibernate\security\AuthorizationServerConfiguration.java
D:\UtsavWorkspace\Proj10_09_2018\DisplayHibernate\src\main\java\com\displayHibernate\controller\ImageController.java
D:\UtsavWorkspace\Proj10_09_2018\DisplayHibernate\src\main\java\com\displayHibernate\dao\ImageDao.java
D:\UtsavWorkspace\Proj10_09_2018\DisplayHibernate\src\main\java\com\displayHibernate\model\Theme.java
D:\UtsavWorkspace\Proj10_09_2018\DisplayHibernate\src\main\java\com\displayHibernate\config\DisplayConfig.java
D:\UtsavWorkspace\Proj10_09_2018\DisplayHibernate\src\main\java\com\displayHibernate\dao\UserDao.java
D:\UtsavWorkspace\Proj10_09_2018\DisplayHibernate\src\main\java\com\displayHibernate\dao\ItemDao.java
D:\UtsavWorkspace\Proj10_09_2018\DisplayHibernate\src\main\java\com\displayHibernate\security\ResourceServerConfiguration.java
D:\UtsavWorkspace\Proj10_09_2018\DisplayHibernate\src\main\java\com\displayHibernate\config\WebAppInitializer.java
D:\UtsavWorkspace\Proj10_09_2018\DisplayHibernate\src\main\java\com\displayHibernate\service\DisplayServiceImpl.java
D:\UtsavWorkspace\Proj10_09_2018\DisplayHibernate\src\main\java\com\displayHibernate\model\User.java
D:\UtsavWorkspace\Proj10_09_2018\DisplayHibernate\src\main\java\com\displayHibernate\controller\DisplayController.java
D:\UtsavWorkspace\Proj10_09_2018\DisplayHibernate\src\main\java\com\displayHibernate\dao\ImageDaoImpl.java
D:\UtsavWorkspace\Proj10_09_2018\DisplayHibernate\src\main\java\com\displayHibernate\dao\DisplayDaoImpl.java
